{
  "name": "controller-collabora",
  "version": "1.0.0",
  "author": "Alexey Smovzh",
  "summary": "This module install Collabora Online Office Suite.",
  "license": "MIT",
  "source": "https://bitbucket.org/alexey_smovzh/collaboration/src/master/",
  "project_page": "https://bitbucket.org/alexey_smovzh/collaboration/src/master/",
  "issues_url": "https://bitbucket.org/alexey_smovzh/collaboration/src/master/",
  "dependencies": [     
    { "name":"collaboration-cfssl","version_requirement":">= 1.0.0 < 2.0.0" },
    { "name":"collaboration-apache2","version_requirement":">= 1.0.0 < 2.0.0" }
  ],
  "data_provider": "hiera",
  "operatingsystem_support": [
    {
      "operatingsystem": "Debian",
      "operatingsystemrelease": [
        "10"
      ]
    }
  ],
  "requirements": [
    {
      "name": "puppet",
      "version_requirement": ">= 5.5.0 < 7.0.0"
    }
  ],
  "pdk-version": "2.1.0"  
}
