{
  "name": "collaboration-tomcat",
  "version": "1.0.0",
  "author": "Alexey Smovzh",
  "summary": "Install and manage Tomcat Java Application Server.",
  "license": "MIT",
  "source": "https://bitbucket.org/alexey_smovzh/collaboration/src/master/",
  "project_page": "https://bitbucket.org/alexey_smovzh/collaboration/src/master/",
  "issues_url": "https://bitbucket.org/alexey_smovzh/collaboration/src/master/",
  "dependencies": [],
  "data_provider": "hiera",
  "operatingsystem_support": [
    {
      "operatingsystem": "Debian",
      "operatingsystemrelease": [
        "10"
      ]
    }
  ],
  "requirements": [
    {
      "name": "puppet",
      "version_requirement": ">= 5.5.0 < 7.0.0"
    }
  ],
  "pdk-version": "2.1.0"
}
